{
    "testName": "Benchmark.cyclictest",
    "specs": {
        "default": {
            "PARAMS": "-S -p 60 -m -D 20 -i 1000 -q"
        },
        "latest": {
            "PER_JOB_BUILD": "true",
            "gitrepo": "https://git.kernel.org/pub/scm/utils/rt-tests/rt-tests.git",
            "gitref": "unstable/devel/v1.1.1",
            "PARAMS": "-S -p 60 -m -D 20 -i 1000 -q"
        }
    }
}
