{
    "testName": "Functional.autopkgtest",
    "specs": {
        "smoketest": {
            "packages": "fakesleep"
        },
        "default": {
            "packages": "libzerg libproxy fakesleep"
        }
    }
}
