{
    "testPlanName": "testplan_reboot",
    "tests": [
        {
            "testName": "Benchmark.reboot",
            "spec": "default"
        },
        {
            "testName": "Functional.hello_world",
            "spec": "default"
        }
    ]
}

                      
