{
    "test_sets":[
        {
            "name":"default",
            "test_cases":[
                {
                    "name":"Hackbench",
                    "measurements":[
                        {
                            "name":"Time",
                            "unit":"seconds"
                        }
                    ]
                }
            ]
        }
    ]
}
