{
    "testName": "Benchmark.dbench3",
    "specs": {
        "sata": {
            "MOUNT_BLOCKDEV":"$SATA_DEV",
            "MOUNT_POINT":"$SATA_MP",
            "TIMELIMIT":"10",
            "NPROCS":"2"
        },
        "mmc": {
            "MOUNT_BLOCKDEV":"$MMC_DEV",
            "MOUNT_POINT":"$MMC_MP",
            "TIMELIMIT":"10",
            "NPROCS":"2"
        },
        "usb": {
            "MOUNT_BLOCKDEV":"$USB_DEV",
            "MOUNT_POINT":"$USB_MP",
            "TIMELIMIT":"10",
            "NPROCS":"2"
        },
        "default": {
            "MOUNT_BLOCKDEV":"ROOT",
            "MOUNT_POINT":"/a",
            "TIMELIMIT":"10",
            "NPROCS":"2"
        },
        "testdir": {
            "MOUNT_BLOCKDEV":"ROOT",
            "MOUNT_POINT":"$BOARD_TESTDIR/work",
            "TIMELIMIT":"10",
            "NPROCS":"2"
        }
    }
}
