{
    "testName": "Benchmark.dbench",
    "specs": {
        "default": {
            "MOUNT_BLOCKDEV":"ROOT",
            "MOUNT_POINT":"$BOARD_TESTDIR/work",
            "TIMELIMIT":"30",
            "NPROCS":"2",
            "LOADFILE":"client.txt",
            "BACKEND":"fileio"
        },
        "sync": {
            "MOUNT_BLOCKDEV":"ROOT",
            "MOUNT_POINT":"$BOARD_TESTDIR/work",
            "TIMELIMIT":"30",
            "NPROCS":"2",
            "EXTRAPARAMS":"-s -S -F"
        },
        "sata": {
            "MOUNT_BLOCKDEV":"$SATA_DEV",
            "MOUNT_POINT":"$SATA_MP",
            "TIMELIMIT":"30",
            "NPROCS":"2"
        },
        "mmc": {
            "MOUNT_BLOCKDEV":"$MMC_DEV",
            "MOUNT_POINT":"$MMC_MP",
            "TIMELIMIT":"30",
            "NPROCS":"2"
        },
        "usb": {
            "MOUNT_BLOCKDEV":"$USB_DEV",
            "MOUNT_POINT":"$USB_MP",
            "TIMELIMIT":"30",
            "NPROCS":"2"
        }
    }
}
