{
    "testName": "Functional.LTP",
    "specs": {
        "default": {
            "tests": "syscalls SEM",
            "extra_success_links": {"xlsx": "results.xlsx", "skiplist": "skiplist.txt"},
            "extra_fail_links": {"xlsx": "results.xlsx", "skiplist": "skiplist.txt"}
        },
        "docker": {
            "tests": "syscalls",
            "skiplist": "kill10 keyctl01",
            "extra_success_links": {"xlsx": "results.xlsx", "skiplist": "skiplist.txt"},
            "extra_fail_links": {"xlsx": "results.xlsx", "skiplist": "skiplist.txt"}
        },
        "selection": {
            "tests": "syscalls fs pipes sched timers dio mm ipc pty AIO MSG SEM SIG THR TMR TPS",
            "extra_success_links": {"xlsx": "results.xlsx", "skiplist": "skiplist.txt"},
            "extra_fail_links": {"xlsx": "results.xlsx", "skiplist": "skiplist.txt"}
        },
        "install": {
            "tests": "syscalls",
            "phases": "build deploy"
        },
        "make_pkg": {
            "tests": "syscalls",
            "phases": "build maketar",
            "extra_success_links": {"tar.gz": "ltp.tar.gz"}
        },
        "selectionwithrt": {
            "tests": "syscalls fs pipes sched timers dio mm ipc pty AIO MSG SEM SIG THR TMR TPS func/hrtimer-prio func/pi-tests func/rt-migrate func/sched_latency func/sched_jitter",
            "skiplist": "kill10 keyctl01 inotify06",
            "extra_success_links": {"xlsx": "results.xlsx", "skiplist": "skiplist.txt"},
            "extra_fail_links": {"xlsx": "results.xlsx", "skiplist": "skiplist.txt"}
        },
        "ltplite": {
            "tests": "ltplite",
            "extra_success_links": {"xlsx": "results.xlsx", "skiplist": "skiplist.txt"},
            "extra_fail_links": {"xlsx": "results.xlsx", "skiplist": "skiplist.txt"}
        },
        "ptsonly": {
            "tests": "AIO MEM MSG SEM SIG THR TMR TPS",
            "extra_success_links": {"xlsx": "results.xlsx", "skiplist": "skiplist.txt"},
            "extra_fail_links": {"xlsx": "results.xlsx", "skiplist": "skiplist.txt"}
        },
        "smoketest": {
            "tests": "fs_bind",
            "extra_success_links": {"xlsx": "results.xlsx", "skiplist": "skiplist.txt"},
            "extra_fail_links": {"xlsx": "results.xlsx", "skiplist": "skiplist.txt"}
        },
        "quickhit": {
            "tests": "quickhit",
            "noautoskip": "true",
            "extra_success_links": {"xlsx": "results.xlsx", "skiplist": "skiplist.txt"},
            "extra_fail_links": {"xlsx": "results.xlsx", "skiplist": "skiplist.txt"}
        },
        "rtonly": {
            "tests": "func/hrtimer-prio func/pi-tests func/rt-migrate func/sched_latency func/sched_jitter",
            "extra_success_links": {"xlsx": "results.xlsx", "skiplist": "skiplist.txt"},
            "extra_fail_links": {"xlsx": "results.xlsx", "skiplist": "skiplist.txt"}
        },
        "somefail": {
            "tests": "timers pty",
            "extra_success_links": {"xlsx": "results.xlsx", "skiplist": "skiplist.txt"},
            "extra_fail_links": {"xlsx": "results.xlsx", "skiplist": "skiplist.txt"}
        },
        "quickhitwithskips": {
            "tests": "quickhit",
            "skiplist": "abort01",
            "extra_success_links": {"xlsx": "results.xlsx", "skiplist": "skiplist.txt"},
            "extra_fail_links": {"xlsx": "results.xlsx", "skiplist": "skiplist.txt"}
        },
        "security": {
            "tests": "cve",
            "extra_success_links": {"xlsx": "results.xlsx", "skiplist": "skiplist.txt"},
            "extra_fail_links": {"xlsx": "results.xlsx", "skiplist": "skiplist.txt"}
        }
    }
}
